﻿ContainerPathName,ContainerFolderName,ContainerComments,RootPath
Admin,0.Administration,Default Administration Container,
Shared,99.Shared_Folders,Container for Shared resources,
Example,1.Example,Container for Example resources,
Arysta_BR,2.Arysta_BR,Arysta Brazil,
,,,
,,,
,,,
